Design Route Status
                                               :      # nets :
   ------------------------------------------- : ----------- :
   # of logical nets.......................... :        4698 :
       # of nets not needing routing.......... :        2596 :
           # of internally routed nets........ :        2596 :
       # of routable nets..................... :        2102 :
           # of fully routed nets............. :        2102 :
       # of nets with routing errors.......... :           0 :
   ------------------------------------------- : ----------- :

